{
  "project_info": {
    "project_number": "127539594690",
    "firebase_url": "https://realholter-174915.firebaseio.com",
    "project_id": "realholter-174915",
    "storage_bucket": "realholter-174915.appspot.com"
  },
  "client": [
    {
      "client_info": {
        "mobilesdk_app_id": "1:127539594690:android:59200635a3ec7369",
        "android_client_info": {
          "package_name": "com.tfg.realholter"
        }
      },
      "oauth_client": [
        {
          "client_id": "127539594690-56hsaaet13k1kgfj1a8hin7ennlbrad0.apps.googleusercontent.com",
          "client_type": 3
        }
      ],
      "api_key": [
        {
          "current_key": "AIzaSyAG5OAmWaSi7yjMT995_6R-xIY73U3Y_Gg"
        }
      ],
      "services": {
        "analytics_service": {
          "status": 1
        },
        "appinvite_service": {
          "status": 1,
          "other_platform_oauth_client": []
        },
        "ads_service": {
          "status": 2
        }
      }
    }
  ],
  "configuration_version": "1"
}